Adam's Theme
…
new_peng <- penguins %>%
  mutate(diff1 = bill_length_mm - mean(bill_length_mm)) %>%
  group_by(species, island) %>%
  mutate(diff2 = bill_length_mm - mean(bill_length_mm)) %>%
  ungroup() %>%
  select(species, island, bill_length_mm, contains("diff"))

new_peng

## # A tibble: 333 x 5
##    species island    bill_length_mm diff1   diff2
##    <fct>   <fct>              <dbl> <dbl>   <dbl>
##  1 Adelie  Torgersen           39.1 -4.89  0.0617
##  2 Adelie  Torgersen           39.5 -4.49  0.462 
##  3 Adelie  Torgersen           40.3 -3.69  1.26  
##  4 Adelie  Torgersen           36.7 -7.29 -2.34  
##  5 Adelie  Torgersen           39.3 -4.69  0.262 
##  6 Adelie  Torgersen           38.9 -5.09 -0.138 
##  7 Adelie  Torgersen           39.2 -4.79  0.162 
##  8 Adelie  Torgersen           41.1 -2.89  2.06  
##  9 Adelie  Torgersen           38.6 -5.39 -0.438 
## 10 Adelie  Torgersen           34.6 -9.39 -4.44  
## # ... with 323 more rows
…
